{
    "data": [
        {
            "id": "49v3fyw4",
            "type": "tournament",
            "attributes": {
                "url": "49v3fyw4",
                "name": "TestTournament",
                "state": "underway",
                "private": false,
                "description": "",
                "gameName": "GUILTY GEAR -STRIVE-",
                "oauthApplicationId": null,
                "fullChallongeUrl": "https://challonge.com/49v3fyw4",
                "liveImageUrl": "https://challonge.com/49v3fyw4.svg",
                "signUpUrl": null,
                "tournamentType": "Double Elimination",
                "notifyUponTournamentEnds": true,
                "notifyUponMatchesOpen": true,
                "thirdPlaceMatch": false,
                "acceptAttachments": false,
                "signupCap": null,
                "openSignup": false,
                "checkInDuration": null,
                "hideSeeds": false,
                "sequentialPairings": false,
                "splitParticipants": false,
                "grandFinalsModifier": null,
                "autoAssignStations": null,
                "onlyStartMatchesWithStations": null,
                "timestamps": {
                    "startsAt": null,
                    "startedAt": "2023-06-10T18:39:04.407Z",
                    "createdAt": "2023-06-10T18:38:35.163Z",
                    "updatedAt": "2023-06-10T18:39:04.687Z",
                    "completedAt": null
                }
            },
            "relationships": {
                "organizer": {
                    "data": {
                        "id": "972370",
                        "type": "user"
                    }
                },
                "community": {
                    "data": null
                },
                "matches": {
                    "links": {
                        "related": "https://api.challonge.com/v2/tournaments/49v3fyw4/matches.json",
                        "meta": {
                            "count": 63
                        }
                    }
                },
                "participants": {
                    "links": {
                        "related": "https://api.challonge.com/v2/tournaments/49v3fyw4/participants.json",
                        "meta": {
                            "count": 32
                        }
                    }
                },
                "stations": {
                    "links": {
                        "related": "https://api.challonge.com/v2/tournaments/49v3fyw4/stations.json",
                        "meta": {
                            "count": 0
                        }
                    }
                },
                "series": {},
                "game": {
                    "data": {
                        "id": "231004",
                        "type": "game"
                    }
                },
                "petition": {},
                "localizedContents": {}
            },
            "links": {
                "self": "https://api.challonge.com/v2/tournaments/49v3fyw4.json"
            }
        }
    ],
    "meta": {
        "count": 28
    },
    "links": {
        "self": "https://api.challonge.com/v2/tournaments.json",
        "next": "https://api.challonge.com/v2/tournaments.json?page=2&per_page=20",
        "prev": "https://api.challonge.com/v2/tournaments.json?page=0&per_page=20"
    }
}